# started on Thu Mar 16 16:36:20 2017


 Performance counter stats for 'mencoder WiegelesHeliSki_DivXPlus_19Mbps.mkv -oac copy -ovc lavc -lavcopts vcodec=mpeg4:mbd=2:trell -really-quiet -vf scale=640:480 -o sortie1thread.avi':

      77449,104360      task-clock (msec)         #    0,999 CPUs utilized          
             6.594      context-switches          #    0,085 K/sec                  
                10      cpu-migrations            #    0,000 K/sec                  
            14.625      page-faults               #    0,189 K/sec                  
   283.302.890.743      cycles                    #    3,658 GHz                    
   <not supported>      stalled-cycles-frontend  
   <not supported>      stalled-cycles-backend   
   589.896.915.791      instructions              #    2,08  insns per cycle        
    49.954.306.076      branches                  #  644,995 M/sec                  
     2.271.528.049      branch-misses             #    4,55% of all branches        
   <not supported>      L1-dcache-loads          
   <not supported>      L1-dcache-load-misses    
   <not supported>      LLC-loads                
   <not supported>      LLC-load-misses          

      77,506978151 seconds time elapsed

