# started on Thu Mar 16 19:54:55 2017


 Performance counter stats for 'mencoder WiegelesHeliSki_DivXPlus_19Mbps.mkv -oac copy -ovc lavc -lavcopts vcodec=mpeg4:mbd=2:trell -really-quiet -vf scale=640:480 -o sortie1thread.avi':

     236399,855638      task-clock (msec)         #    1,000 CPUs utilized          
               523      context-switches          #    0,002 K/sec                  
                 3      cpu-migrations            #    0,000 K/sec                  
            14.556      page-faults               #    0,062 K/sec                  
   602.173.278.559      cycles                    #    2,547 GHz                      (33,33%)
   <not supported>      stalled-cycles-frontend  
   <not supported>      stalled-cycles-backend   
   593.956.073.575      instructions              #    0,99  insns per cycle          (50,00%)
    50.099.457.965      branches                  #  211,927 M/sec                    (50,00%)
     3.208.278.691      branch-misses             #    6,40% of all branches          (50,00%)
   <not supported>      L1-dcache-loads          
     2.477.967.611      L1-dcache-load-misses     #    0,00% of all L1-dcache hits    (33,34%)
     4.971.049.644      LLC-loads                 #   21,028 M/sec                    (33,33%)
   <not supported>      LLC-load-misses          

     236,337259438 seconds time elapsed

