# started on Thu Mar 16 14:57:39 2017


 Performance counter stats for 'mencoder WiegelesHeliSki_DivXPlus_19Mbps.mkv -oac copy -ovc lavc -lavcopts vcodec=mpeg4:mbd=2:trell -really-quiet -vf scale=640:480 -o sortie1thread.avi':

      84653.763209      task-clock:u (msec)       #    0.972 CPUs utilized          
                 0      context-switches:u        #    0.000 K/sec                  
                 0      cpu-migrations:u          #    0.000 K/sec                  
            13,825      page-faults:u             #    0.163 K/sec                  
   306,967,016,162      cycles:u                  #    3.626 GHz                    
   589,977,280,944      instructions:u            #    1.92  insn per cycle         
    51,880,219,970      branches:u                #  612.852 M/sec                  
     2,296,362,696      branch-misses:u           #    4.43% of all branches        
   158,156,601,361      L1-dcache-loads:u         # 1868.276 M/sec                  
     4,014,153,919      L1-dcache-load-misses:u   #    2.54% of all L1-dcache hits  
       671,499,200      LLC-loads:u               #    7.932 M/sec                  
       435,420,688      LLC-load-misses:u         #   64.84% of all LL-cache hits   

      87.082873823 seconds time elapsed

